<?xml version="1.0" encoding="utf-8"?>
<!-- Generated by IcoMoon.io -->
<!DOCTYPE svg PUBLIC "-//W3C//DTD SVG 1.1//EN" "http://www.w3.org/Graphics/SVG/1.1/DTD/svg11.dtd">
<svg version="1.1" xmlns="http://www.w3.org/2000/svg" xmlns:xlink="http://www.w3.org/1999/xlink" width="706" height="1024" viewBox="0 0 706 1024">
    <g id="flag" fill-rule="evenodd" stroke-width="1pt" transform="matrix(.48166 0 0 .72249 0 .0000024116)">
        <rect id="rect171" height="708.66" width="1063" y="0" x="0" fill="#fff"/>
        <rect id="rect403" height="472.44" width="1063" y="236.22" x="0" fill="#01017e"/>
        <rect id="rect135" height="236.22" width="1063" y="472.44" x="0" fill="#fe0101"/>
    </g>
</svg>

