<?xml version="1.0" encoding="utf-8"?>
<!-- Generator: Adobe Illustrator 19.0.1, SVG Export Plug-In . SVG Version: 6.00 Build 0)  -->
<svg version="1.1" id="Слой_1" xmlns="http://www.w3.org/2000/svg" xmlns:xlink="http://www.w3.org/1999/xlink" x="0px" y="0px"
	 viewBox="-449 688 100 125" style="enable-background:new -449 688 100 125;" xml:space="preserve">
<path d="M-415.4,715.9h13.8c6.3,0,10.8,0.9,13.7,2.7c2.8,1.8,4.2,4.6,4.2,8.5c0,2.6-0.6,4.8-1.9,6.5c-1.2,1.7-2.9,2.7-4.9,3.1v0.3
	c2.8,0.6,4.8,1.8,6.1,3.5c1.2,1.7,1.9,4,1.9,6.8c0,4-1.5,7.2-4.4,9.4c-2.9,2.3-6.9,3.4-11.9,3.4h-16.5V715.9z M-406,733.4h5.4
	c2.5,0,4.4-0.4,5.5-1.2c1.1-0.8,1.7-2.1,1.7-3.9c0-1.7-0.6-2.9-1.9-3.6c-1.2-0.7-3.2-1.1-5.9-1.1h-4.9L-406,733.4L-406,733.4z
	 M-406,740.8v11.5h6.1c2.6,0,4.5-0.5,5.7-1.5c1.2-1,1.8-2.5,1.8-4.5c0-3.7-2.6-5.5-7.9-5.5L-406,740.8L-406,740.8z"/>
</svg>
