<?xml version="1.0" encoding="utf-8"?>
<!-- Generator: Adobe Illustrator 19.0.1, SVG Export Plug-In . SVG Version: 6.00 Build 0)  -->
<svg version="1.1" id="Слой_1" xmlns="http://www.w3.org/2000/svg" xmlns:xlink="http://www.w3.org/1999/xlink" x="0px" y="0px"
	 viewBox="-449 688 100 125" style="enable-background:new -449 688 100 125;" xml:space="preserve">
<g>
	<path d="M-372.2,752.4c-0.4,0-1-0.1-1.7-0.3c-2-0.6-3.9-1.6-5.6-2.9c-1.6-1.2-4.6-3.3-7-3.3h-24.9c-1.8,0-4.3,1.2-7,3.3
		c-1.7,1.3-3.6,2.3-5.6,2.9c-0.7,0.2-1.3,0.3-1.7,0.3c-4.3,0-7.9-3.5-7.9-7.9c0-2.7,1.4-5.1,3.5-6.5c-2.1-1.4-3.5-3.8-3.5-6.5
		c0-4.3,3.5-7.9,7.9-7.9c0.4,0,1,0.1,1.7,0.3c2,0.6,3.9,1.6,5.6,2.9c2.7,2.1,5.3,3.3,7,3.3h24.8c1.8,0,4.3-1.2,7-3.3
		c1.7-1.3,3.6-2.3,5.6-2.9c0.7-0.2,1.3-0.3,1.7-0.3c4.3,0,7.9,3.5,7.9,7.9c0,2.7-1.4,5.1-3.5,6.5c2.1,1.4,3.5,3.8,3.5,6.5
		C-364.3,748.9-367.9,752.4-372.2,752.4z M-424.4,738c0,0.7-0.6,1.4-1.4,1.4c-2.9,0-5.2,2.3-5.2,5.2c0,2.9,2.3,5.2,5.2,5.2
		c0,0,0.2,0,0.9-0.2c1.7-0.5,3.3-1.4,4.8-2.5c2.3-1.7,5.6-3.8,8.7-3.8h24.8c3.1,0,6.4,2.1,8.7,3.8c1.5,1.1,3.1,2,4.8,2.5
		c0.7,0.2,0.9,0.2,0.9,0.2c2.9,0,5.2-2.3,5.2-5.2c0-2.9-2.3-5.2-5.2-5.2c-0.7,0-1.4-0.6-1.4-1.4s0.6-1.4,1.4-1.4
		c2.9,0,5.2-2.3,5.2-5.2c0-2.9-2.3-5.2-5.2-5.2c0,0-0.2,0-0.9,0.2c-1.7,0.5-3.3,1.4-4.8,2.5c-2.3,1.7-5.6,3.8-8.7,3.8h-24.8
		c-3.1,0-6.4-2.1-8.7-3.8c-1.5-1.1-3.1-2-4.8-2.5c-0.7-0.2-0.9-0.2-0.9-0.2c-2.9,0-5.2,2.3-5.2,5.2c0,2.9,2.3,5.2,5.2,5.2
		C-425,736.6-424.4,737.3-424.4,738z"/>
</g>
</svg>
