<?xml version="1.0" encoding="utf-8"?>
<!-- Generator: Adobe Illustrator 19.0.1, SVG Export Plug-In . SVG Version: 6.00 Build 0)  -->
<svg version="1.1" id="Слой_1" xmlns:sketch="http://www.bohemiancoding.com/sketch/ns"
	 xmlns="http://www.w3.org/2000/svg" xmlns:xlink="http://www.w3.org/1999/xlink" x="0px" y="0px" viewBox="-491 743 16 16"
	 style="enable-background:new -491 743 16 16;" xml:space="preserve">
<circle sketch:type="MSShapeGroup" cx="-488.7" cy="754.5" r="2.3">
</circle>
<circle sketch:type="MSShapeGroup" cx="-488.7" cy="747.5" r="2.3">
</circle>
<rect x="-485" y="746" sketch:type="MSShapeGroup" width="10" height="3">
</rect>
<rect x="-485" y="753" sketch:type="MSShapeGroup" width="10" height="3">
</rect>
</svg>
