<?xml version="1.0" encoding="utf-8"?>
<!-- Generator: Adobe Illustrator 19.0.1, SVG Export Plug-In . SVG Version: 6.00 Build 0)  -->
<svg version="1.1" id="Слой_1" xmlns="http://www.w3.org/2000/svg" xmlns:xlink="http://www.w3.org/1999/xlink" x="0px" y="0px"
	 viewBox="-449 708.1 100 85.9" style="enable-background:new -449 708.1 100 85.9;" xml:space="preserve">
<path d="M-449,757.8v-6l28.2-19l3.9,7.9l-16.1,11.1l-6.6,2.8l6.5,2.5l16.5,11l-3.8,7.9L-449,757.8z"/>
<path d="M-389.6,723.2l7.1,4l-25.8,64.7l-6.9-4.4L-389.6,723.2z"/>
<path d="M-349,751v6l-28.4,19.1l-3.7-8.1l16.1-11.1l6.6-2.9l-6.5-2.4l-16.4-11.1l3.7-7.9L-349,751z"/>
</svg>
