<?xml version="1.0" encoding="utf-8"?>
<!-- Generator: Adobe Illustrator 19.0.1, SVG Export Plug-In . SVG Version: 6.00 Build 0)  -->
<svg version="1.1" id="Слой_1" xmlns="http://www.w3.org/2000/svg" xmlns:xlink="http://www.w3.org/1999/xlink" x="0px" y="0px"
	 viewBox="-467 719 64 64" style="enable-background:new -467 719 64 64;" xml:space="preserve">
<path d="M-428,727h6v4h-6V727z"/>
<path d="M-420,727h6v4h-6V727z"/>
<path d="M-412,727h4v6h-4V727z"/>
<path d="M-428,741h4v6h-4V741z"/>
<path d="M-422,743h6v4h-6V743z"/>
<path d="M-414,743h6v4h-6V743z"/>
<path d="M-428,733h4v6h-4V733z"/>
<path d="M-412,735h4v6h-4V735z"/>
<path d="M-412,759v12h-12v-12H-412z M-408,755h-20v20h20V755z"/>
<path d="M-445,768v-48h-8v48h-10l14,14l14-14H-445z"/>
</svg>
